#FIG 3.2
Landscape
Center
Metric
A4      
100.00
Single
-2
1200 2
2 1 0 1 11 11 50 -1 -1 0.000 0 0 -1 0 0 3
	 -405 -360 -360 -90 405 -90
2 1 0 1 11 11 50 -1 -1 0.000 0 0 -1 0 0 7
	 -495 450 -360 450 -360 180 90 180 90 450 360 270
	 450 405
2 3 0 1 11 11 50 -1 20 0.000 0 0 -1 0 0 5
	 -135 -540 -135 -270 135 -270 135 -540 -135 -540
2 1 0 1 11 11 50 -1 20 0.000 0 0 -1 0 0 2
	 45 135 0 -270
2 3 0 1 11 11 50 -1 20 0.000 0 0 -1 0 0 5
	 -90 -90 -90 180 90 180 90 -90 -90 -90
2 1 0 1 8 11 40 -1 20 0.000 0 0 -1 0 0 2
	 -135 -405 0 -405
