#FIG 3.2
Landscape
Center
Metric
A4      
100.00
Single
-2
1200 2
2 3 0 1 18 20 40 -1 20 0.000 0 0 -1 0 0 5
	 -135 -450 -135 360 135 360 135 -450 -135 -450
2 3 0 1 31 6 50 -1 20 0.000 0 0 -1 0 0 5
	 -135 360 135 360 135 450 -135 450 -135 360
2 3 0 1 18 20 40 -1 20 0.000 0 0 -1 0 0 5
	 -585 -450 -585 360 -315 360 -315 -450 -585 -450
2 3 0 1 31 6 50 -1 20 0.000 0 0 -1 0 0 5
	 -585 360 -315 360 -315 450 -585 450 -585 360
2 3 0 1 18 20 40 -1 20 0.000 0 0 -1 0 0 5
	 315 -450 315 360 585 360 585 -450 315 -450
2 3 0 1 31 6 50 -1 20 0.000 0 0 -1 0 0 5
	 315 360 585 360 585 450 315 450 315 360
